<?xml version="1.0" encoding="UTF-8" standalone="no"?>
<!DOCTYPE svg PUBLIC "-//W3C//DTD SVG 1.1//EN"
 "http://www.w3.org/Graphics/SVG/1.1/DTD/svg11.dtd">
<!-- Generated by graphviz version 2.40.1 (20161225.0304)
 -->
<!-- Title: %0 Pages: 1 -->
<svg width="62pt" height="168pt"
 viewBox="0.00 0.00 62.00 168.00" xmlns="http://www.w3.org/2000/svg" xmlns:xlink="http://www.w3.org/1999/xlink">
<g id="graph0" class="graph" transform="scale(1 1) rotate(0) translate(4 164)">
<title>%0</title>
<g id="a_graph0"><a xlink:title="Data Model">
<polygon fill="#ffffff" stroke="transparent" points="-4,4 -4,-164 58,-164 58,4 -4,4"/>
</a>
</g>
<!-- T1 -->
<g id="node1" class="node">
<title>T1</title>
<polygon fill="#efebdd" stroke="transparent" points="11,-139 11,-159 43,-159 43,-139 11,-139"/>
<text text-anchor="start" x="19.2237" y="-144.4" font-family="Times,serif" font-size="14.00" fill="#000000">T1</text>
<polygon fill="#ffffff" stroke="transparent" points="11,-119 11,-139 15,-139 15,-119 11,-119"/>
<polygon fill="#ffffff" stroke="transparent" points="15,-119 15,-139 43,-139 43,-119 15,-119"/>
<text text-anchor="start" x="16.5561" y="-125.4" font-family="Times,serif" text-decoration="underline" font-size="14.00" fill="#444444">Att1</text>
<polygon fill="#ffffff" stroke="transparent" points="11,-99 11,-119 15,-119 15,-99 11,-99"/>
<polygon fill="#ffffff" stroke="transparent" points="15,-99 15,-119 43,-119 43,-99 15,-99"/>
<text text-anchor="start" x="16.5561" y="-105.4" font-family="Times,serif" text-decoration="underline" font-size="14.00" fill="#444444">Att2</text>
<polygon fill="none" stroke="#555555" points="10,-98 10,-160 44,-160 44,-98 10,-98"/>
</g>
<!-- T2 -->
<g id="node2" class="node">
<title>T2</title>
<polygon fill="#efebdd" stroke="transparent" points="8,-41 8,-61 47,-61 47,-41 8,-41"/>
<text text-anchor="start" x="19.7237" y="-46.4" font-family="Times,serif" font-size="14.00" fill="#000000">T2</text>
<polygon fill="#ffffff" stroke="transparent" points="8,-21 8,-41 19,-41 19,-21 8,-21"/>
<polygon fill="#ffffff" stroke="transparent" points="19,-21 19,-41 47,-41 47,-21 19,-21"/>
<text text-anchor="start" x="20.5561" y="-27.4" font-family="Times,serif" text-decoration="underline" font-size="14.00" fill="#444444">Att3</text>
<polygon fill="#ffffff" stroke="transparent" points="8,-1 8,-21 19,-21 19,-1 8,-1"/>
<text text-anchor="start" x="9.7137" y="-6.4" font-family="Times,serif" font-size="14.00" fill="#444444">~</text>
<polygon fill="#ffffff" stroke="transparent" points="19,-1 19,-21 47,-21 47,-1 19,-1"/>
<text text-anchor="start" x="20.5561" y="-6.4" font-family="Times,serif" font-size="14.00" fill="#444444">Att4</text>
<polygon fill="none" stroke="#555555" points="6.5,0 6.5,-62 47.5,-62 47.5,0 6.5,0"/>
</g>
<!-- T2&#45;&gt;T1 -->
<g id="edge1" class="edge">
<title>T2&#45;&gt;T1</title>
<path fill="none" stroke="#555555" d="M27,-62.0078C27,-70.1406 27,-79.0413 27,-87.6223"/>
<polygon fill="#555555" stroke="#555555" points="23.5001,-87.8575 27,-97.8575 30.5001,-87.8576 23.5001,-87.8575"/>
</g>
</g>
</svg>
